<svg xmlns="http://www.w3.org/2000/svg" width="512" height="512" viewBox="0 0 512 512">
  <defs>
    <style>
      .cls-1 {
        fill: #0b0b0b;
      }

      .cls-1, .cls-2 {
        fill-rule: evenodd;
      }

      .cls-2 {
        fill: #8d4ad3;
      }
    </style>
  </defs>
  <path class="cls-1" d="M256,0C114.6,0,0,114.618,0,256S114.6,512,256,512,512,397.382,512,256,397.4,0,256,0Zm10.379,490.981V449.73a10.379,10.379,0,0,0-20.758,0v41.251c-121.476-5.308-219.295-103.134-224.6-224.6H62.27a10.379,10.379,0,0,0,0-20.758H21.02c5.307-121.468,103.127-219.295,224.6-224.6V62.27a10.379,10.379,0,0,0,20.758,0V21.02c121.476,5.307,219.3,103.133,224.6,224.6H449.73a10.379,10.379,0,0,0,0,20.758h41.251C485.673,387.847,387.853,485.673,266.379,490.981Z"/>
  <path class="cls-2" d="M390.18,112a24.423,24.423,0,0,0-8.458,1.776L213.406,177.317c-14.234,5.37-30.273,21.411-35.647,35.628L114.177,381.136C110,392.174,113.43,399,121.82,399a24.423,24.423,0,0,0,8.458-1.776l168.316-63.542c14.234-5.37,30.273-21.411,35.647-35.627l63.582-168.192C402,118.828,398.578,112,390.18,112ZM291.264,314.291L140.045,371.378l57.13-151.107a30.362,30.362,0,0,1,3.133-5.757l19.828,19.821a41.434,41.434,0,0,0,57.047,56.995l19.844,19.829A29.8,29.8,0,0,1,291.264,314.291ZM234.7,256.05a20.749,20.749,0,1,1,20.755,20.734A20.767,20.767,0,0,1,234.7,256.05Zm80.132,34.68a30,30,0,0,1-3.141,5.764l-20.1-20.1a41.462,41.462,0,0,0-56.507-56.457l-20.1-20.091a29.873,29.873,0,0,1,5.768-3.138l151.212-57.088Z"/>
</svg>
