<svg xmlns="http://www.w3.org/2000/svg" width="443" height="512" viewBox="0 0 443 512">
  <defs>
    <style>
      .cls-1, .cls-2 {
        fill-rule: evenodd;
      }

      .cls-2 {
        fill: #8d4ad3;
      }
    </style>
  </defs>
  <path class="cls-1" d="M416.058,194.372H377.011V156.193C377.005,69.929,307.281.007,221.5,0S65.8,69.929,65.789,156.192v38.179H26.942A26.092,26.092,0,0,0,1,220.461V485.91A26.091,26.091,0,0,0,26.942,512H416.059A26.092,26.092,0,0,0,442,485.91V220.462A26.091,26.091,0,0,0,416.058,194.372ZM85.244,156.192a136.905,136.905,0,0,1,40.19-96.609,135.32,135.32,0,0,1,192.128,0,136.711,136.711,0,0,1,40,96.609v38.179H85.244V156.192ZM416.06,492.431H26.942a6.593,6.593,0,0,1-6.485-6.521V220.462a6.592,6.592,0,0,1,6.485-6.521H416.059a6.587,6.587,0,0,1,6.485,6.521V485.91h0A6.594,6.594,0,0,1,416.06,492.431Z"/>
  <path class="cls-2" d="M221.5,303a45.747,45.747,0,0,0-9.749,90.387V440.2a9.75,9.75,0,1,0,19.5,0v-46.81A45.747,45.747,0,0,0,221.5,303Zm0,71.873a26.135,26.135,0,1,1,26-26.135A26.1,26.1,0,0,1,221.5,374.875Z"/>
</svg>
