<svg xmlns="http://www.w3.org/2000/svg" width="190" height="168" viewBox="0 0 190 168">
  <defs>
    <style>
      .cls-1 {
        fill: #a3a5a4;
        fill-rule: evenodd;
      }
    </style>
  </defs>
  <path class="cls-1" d="M178.491,75.687a6.449,6.449,0,0,0-1.385-2.08L158,54.483a6.375,6.375,0,0,0-9.014,9.012l8.245,8.242H121.6a6.375,6.375,0,0,0,0,12.751h35.611l-8.245,8.242a6.375,6.375,0,0,0,9.014,9.012L177.091,82.62A6.391,6.391,0,0,0,178.491,75.687ZM134.353,97.249a6.375,6.375,0,0,0-6.372,6.373V135.5h-25.5V33.5a6.382,6.382,0,0,0-4.547-6.105L75.794,20.754h52.187v31.87a6.377,6.377,0,0,0,12.749,0V14.376A6.375,6.375,0,0,0,134.353,8h-102a5.677,5.677,0,0,0-.645.12,6.3,6.3,0,0,0-2.7.956,2.487,2.487,0,0,0-.459.186c-0.052.038-.072,0.11-0.124,0.148a6.313,6.313,0,0,0-1.691,2.013,5.2,5.2,0,0,0-.181.535,6.047,6.047,0,0,0-.5,1.492,3.979,3.979,0,0,0,0,.555c0.01,0.129-.072.244-0.072,0.368V141.87a6.372,6.372,0,0,0,5.125,6.249L94.853,160.87A5.936,5.936,0,0,0,96.1,161a6.38,6.38,0,0,0,6.377-6.373v-6.383h31.876a6.375,6.375,0,0,0,6.377-6.373h0V103.622a6.375,6.375,0,0,0-6.377-6.373h0Z"/>
</svg>
