<svg xmlns="http://www.w3.org/2000/svg" width="190" height="168" viewBox="0 0 190 168">
  <defs>
    <style>
      .cls-1 {
        fill: #a3a5a4;
        fill-rule: evenodd;
      }
    </style>
  </defs>
  <path class="cls-1" d="M136,4H52A10.05,10.05,0,0,0,42,14.075V157.954a6.055,6.055,0,0,0,3.078,5.28,5.97,5.97,0,0,0,6.076-.135l42.858-26.66,42.852,26.466a5.949,5.949,0,0,0,6.068.121A6.051,6.051,0,0,0,146,157.753V14.075A10.049,10.049,0,0,0,136,4Zm-2,142.953L97.138,124.185a5.966,5.966,0,0,0-6.29.01L54,147.116V16.09h80V146.953Z"/>
</svg>
